…
[30] "Patient Refuses to Continue"                                    
[31] "Caregiver Was Hospitalized;see Comments"                        
[32] "Caregiver Withdrew from Study"                                  
[33] "Too Much Trouble for Caregiver"                                 
[34] "Pt Kept Removing Patches"                                       
[35] "Placed in Nursing Home"                                         
[36] "Institutionalized"                                              
[37] "Patient to Begin Course of Aricept"                             
[38] "Patient Unable to Tolerate Dermal Irritation at Patch Site"     
[1] NA                      "Final Lab Visit"      
[3] "Final Retrieval Visit"
# A tibble: 0 × 5
# ℹ 5 variables: oak_id <int>, raw_source <chr>,
#   patient_number <chr>, DSDECOD <chr>, DSTERM <chr>
# A tibble: 290 × 16
   oak_id raw_source patient_number STUDY        PATNUM SITENM
    <int> <chr>      <chr>          <chr>        <chr>  <chr> 
 1      3 ds_raw     701-1015       CDISCPILOT01 701-1… CDISC…
 2      6 ds_raw     701-1023       CDISCPILOT01 701-1… CDISC…
 3      7 ds_raw     701-1023       CDISCPILOT01 701-1… CDISC…
 4     10 ds_raw     701-1028       CDISCPILOT01 701-1… CDISC…
 5     13 ds_raw     701-1033       CDISCPILOT01 701-1… CDISC…
 6     14 ds_raw     701-1033       CDISCPILOT01 701-1… CDISC…
 7     17 ds_raw     701-1034       CDISCPILOT01 701-1… CDISC…
 8     20 ds_raw     701-1047       CDISCPILOT01 701-1… CDISC…
 9     21 ds_raw     701-1047       CDISCPILOT01 701-1… CDISC…
10     25 ds_raw     701-1097       CDISCPILOT01 701-1… CDISC…
# ℹ 280 more rows
# ℹ 10 more variables: INSTANCE <chr>, FORM <chr>,
#   FORML <chr>, IT.DSTERM <chr>, IT.DSDECOD <chr>,
#   OTHERSP <chr>, DSDTCOL <chr>, DSTMCOL <chr>,
#   IT.DSSTDAT <chr>, DEATHDT <chr>
# ℹ Use `print(n = ...)` to see more rows
# A tibble: 0 × 5
# ℹ 5 variables: oak_id <int>, raw_source <chr>,
#   patient_number <chr>, DSDECOD <chr>, DSTERM <chr>
# A tibble: 290 × 16
   oak_id raw_source patient_number STUDY        PATNUM SITENM
    <int> <chr>      <chr>          <chr>        <chr>  <chr> 
 1      3 ds_raw     701-1015       CDISCPILOT01 701-1… CDISC…
 2      6 ds_raw     701-1023       CDISCPILOT01 701-1… CDISC…
 3      7 ds_raw     701-1023       CDISCPILOT01 701-1… CDISC…
 4     10 ds_raw     701-1028       CDISCPILOT01 701-1… CDISC…
 5     13 ds_raw     701-1033       CDISCPILOT01 701-1… CDISC…
 6     14 ds_raw     701-1033       CDISCPILOT01 701-1… CDISC…
 7     17 ds_raw     701-1034       CDISCPILOT01 701-1… CDISC…
 8     20 ds_raw     701-1047       CDISCPILOT01 701-1… CDISC…
 9     21 ds_raw     701-1047       CDISCPILOT01 701-1… CDISC…
10     25 ds_raw     701-1097       CDISCPILOT01 701-1… CDISC…
# ℹ 280 more rows
# ℹ 10 more variables: INSTANCE <chr>, FORM <chr>,
#   FORML <chr>, IT.DSTERM <chr>, IT.DSDECOD <chr>,
#   OTHERSP <chr>, DSDTCOL <chr>, DSTMCOL <chr>,
#   IT.DSSTDAT <chr>, DEATHDT <chr>
# ℹ Use `print(n = ...)` to see more rows
…
 [22] "09:25" "15:40" "12:35" "13:15" "09:47" "13:54" "11:54"
 [29] "11:35" "15:16" "14:12" "15:17" "10:00" "12:00" "10:40"
 [36] "11:30" "12:34" "12:22" "11:25" "15:53" "12:20" "11:00"
 [43] "13:05" "09:30" "17:10" "15:00" "12:15" "13:30" "14:45"
 [50] "11:40" "10:55" "12:40" "10:45" "10:30" "09:56" "11:50"
 [57] "09:45" "09:15" "15:45" "13:45" "14:30" "12:30" "09:55"
 [64] "15:20" "15:30" "15:25" "13:33" "14:27" "09:40" "11:15"
 [71] "16:35" "10:05" "08:00" "08:50" "11:05" "10:35" "13:40"
 [78] "10:25" "09:20" "13:00" "10:58" "13:25" "09:10" "13:20"
 [85] "12:23" "10:07" "14:40" "11:55" "16:00" "09:35" "12:18"
 [92] "12:05" "16:30" "15:50" "14:05" "14:35" "13:11" "10:52"
 [99] "15:15" "14:00" "15:10" "13:58" "14:55" "10:22" "09:52"
[106] "08:45" "10:28" "11:12" "10:50" "13:35" "12:10" "09:00"
[113] "10:23" "13:21" "10:53" "11:14" "14:14"
# A tibble: 254 × 12
   STUDYID  DOMAIN USUBJID DSSEQ DSTERM DSDECOD DSCAT VISITNUM
   <chr>    <chr>  <chr>   <int> <chr>  <chr>   <chr> <chr>   
 1 CDISCPI… DS     CDISCP…     3 Rando… RANDOM… PROT… 3       
 2 CDISCPI… DS     CDISCP…     4 Rando… RANDOM… PROT… 3       
 3 CDISCPI… DS     CDISCP…     3 Rando… RANDOM… PROT… 3       
 4 CDISCPI… DS     CDISCP…     3 Rando… RANDOM… PROT… 3       
 5 CDISCPI… DS     CDISCP…     3 Rando… RANDOM… PROT… 3       
 6 CDISCPI… DS     CDISCP…     4 Rando… RANDOM… PROT… 3       
 7 CDISCPI… DS     CDISCP…     3 Rando… RANDOM… PROT… 3       
 8 CDISCPI… DS     CDISCP…     4 Rando… RANDOM… PROT… 3       
 9 CDISCPI… DS     CDISCP…     4 Rando… RANDOM… PROT… 3       
10 CDISCPI… DS     CDISCP…     3 Rando… RANDOM… PROT… 3       
# ℹ 244 more rows
# ℹ 4 more variables: VISIT <chr>, DSDTC <iso8601>,
#   DSSTDTC <date>, DSSTDY <int>
# ℹ Use `print(n = ...)` to see more rows
# A tibble: 254 × 16
   oak_id raw_source patient_number STUDY        PATNUM SITENM
    <int> <chr>      <chr>          <chr>        <chr>  <chr> 
 1      1 ds_raw     701-1015       CDISCPILOT01 701-1… CDISC…
 2      4 ds_raw     701-1023       CDISCPILOT01 701-1… CDISC…
 3      8 ds_raw     701-1028       CDISCPILOT01 701-1… CDISC…
 4     11 ds_raw     701-1033       CDISCPILOT01 701-1… CDISC…
 5     15 ds_raw     701-1034       CDISCPILOT01 701-1… CDISC…
 6     18 ds_raw     701-1047       CDISCPILOT01 701-1… CDISC…
 7     23 ds_raw     701-1097       CDISCPILOT01 701-1… CDISC…
 8     26 ds_raw     701-1111       CDISCPILOT01 701-1… CDISC…
 9     30 ds_raw     701-1115       CDISCPILOT01 701-1… CDISC…
10     34 ds_raw     701-1118       CDISCPILOT01 701-1… CDISC…
# ℹ 244 more rows
# ℹ 10 more variables: INSTANCE <chr>, FORM <chr>,
#   FORML <chr>, IT.DSTERM <chr>, IT.DSDECOD <chr>,
#   OTHERSP <chr>, DSDTCOL <chr>, DSTMCOL <chr>,
#   IT.DSSTDAT <chr>, DEATHDT <chr>
# ℹ Use `print(n = ...)` to see more rows
# A tibble: 306 × 12
   STUDYID  DOMAIN USUBJID DSSEQ DSTERM DSDECOD DSCAT VISITNUM
   <chr>    <chr>  <chr>   <int> <chr>  <chr>   <chr> <chr>   
 1 CDISCPI… DS     CDISCP…     2 Proto… COMPLE… DISP… 13      
 2 CDISCPI… DS     CDISCP…     1 Adver… ADVERS… DISP… 5       
 3 CDISCPI… DS     CDISCP…     2 Proto… COMPLE… DISP… 13      
 4 CDISCPI… DS     CDISCP…     4 Spons… STUDY … DISP… 5       
 5 CDISCPI… DS     CDISCP…     2 Proto… COMPLE… DISP… 13      
 6 CDISCPI… DS     CDISCP…     1 Adver… ADVERS… DISP… AMBUL E…
 7 CDISCPI… DS     CDISCP…     1 Scree… SCREEN… DISP… 1       
 8 CDISCPI… DS     CDISCP…     2 Proto… COMPLE… DISP… 13      
 9 CDISCPI… DS     CDISCP…     1 Adver… ADVERS… DISP… 4       
10 CDISCPI… DS     CDISCP…     1 Adver… ADVERS… DISP… 8       
# ℹ 296 more rows
# ℹ 4 more variables: VISIT <chr>, DSDTC <iso8601>,
#   DSSTDTC <date>, DSSTDY <int>
# ℹ Use `print(n = ...)` to see more rows
# A tibble: 306 × 16
   oak_id raw_source patient_number STUDY        PATNUM SITENM
    <int> <chr>      <chr>          <chr>        <chr>  <chr> 
 1      2 ds_raw     701-1015       CDISCPILOT01 701-1… CDISC…
 2      5 ds_raw     701-1023       CDISCPILOT01 701-1… CDISC…
 3      9 ds_raw     701-1028       CDISCPILOT01 701-1… CDISC…
 4     12 ds_raw     701-1033       CDISCPILOT01 701-1… CDISC…
 5     16 ds_raw     701-1034       CDISCPILOT01 701-1… CDISC…
 6     19 ds_raw     701-1047       CDISCPILOT01 701-1… CDISC…
 7     22 ds_raw     701-1057       CDISCPILOT01 701-1… CDISC…
 8     24 ds_raw     701-1097       CDISCPILOT01 701-1… CDISC…
 9     27 ds_raw     701-1111       CDISCPILOT01 701-1… CDISC…
10     31 ds_raw     701-1115       CDISCPILOT01 701-1… CDISC…
# ℹ 296 more rows
# ℹ 10 more variables: INSTANCE <chr>, FORM <chr>,
#   FORML <chr>, IT.DSTERM <chr>, IT.DSDECOD <chr>,
#   OTHERSP <chr>, DSDTCOL <chr>, DSTMCOL <chr>,
#   IT.DSSTDAT <chr>, DEATHDT <chr>
# ℹ Use `print(n = ...)` to see more rows
…
